<?xml version="1.0" encoding="UTF-8"?>
<!DOCTYPE svg PUBLIC "-//W3C//DTD SVG 1.1//EN" "http://www.w3.org/Graphics/SVG/1.1/DTD/svg11.dtd">
<!-- Creator: CorelDRAW 2018 (64-Bit) -->
<svg xmlns="http://www.w3.org/2000/svg" xml:space="preserve" width="500px" height="476px" version="1.1" style="shape-rendering:geometricPrecision; text-rendering:geometricPrecision; image-rendering:optimizeQuality; fill-rule:evenodd; clip-rule:evenodd"
viewBox="0 0 500 476.22"
 xmlns:xlink="http://www.w3.org/1999/xlink">
 <defs>
  <style type="text/css">
   <![CDATA[
    .str0 {stroke:#FEFEFE;stroke-width:8.17;stroke-miterlimit:22.9256}
    .fil0 {fill:#B2B3B3}
   ]]>
  </style>
 </defs>
 <g id="Слой_x0020_1">
  <metadata id="CorelCorpID_0Corel-Layer"/>
  <path class="fil0 str0" d="M441.23 169.9l51.87 -51.87c2.14,-2.14 3.15,-5.16 2.72,-8.15 -0.43,-2.99 -2.24,-5.61 -4.89,-7.06l-62.35 -34.24c-4.65,-2.56 -10.49,-0.86 -13.05,3.79 -2.55,4.66 -0.85,10.49 3.8,13.05l51.14 28.08 -44.52 44.51 -160.1 -87.92 44.51 -44.51 45 24.71c4.64,2.55 10.49,0.86 13.04,-3.8 2.55,-4.65 0.85,-10.49 -3.8,-13.04l-51.31 -28.18c-3.75,-2.06 -8.4,-1.39 -11.42,1.63l-51.87 51.87 -51.87 -51.87c-3.02,-3.02 -7.68,-3.68 -11.42,-1.63l-177.64 97.55c-2.65,1.45 -4.46,4.07 -4.89,7.06 -0.43,2.99 0.58,6.01 2.72,8.15l51.87 51.87 -51.87 51.86c-2.14,2.14 -3.15,5.16 -2.72,8.15 0.43,2.99 2.24,5.61 4.89,7.06l53.68 29.48 0 98.53c0,3.51 1.91,6.74 4.98,8.43l177.65 97.54c1.44,0.79 3.03,1.19 4.62,1.19 1.59,0 3.18,-0.4 4.62,-1.19l177.65 -97.54c3.07,-1.69 4.98,-4.92 4.98,-8.43l0 -98.53 53.68 -29.47c2.65,-1.46 4.46,-4.08 4.89,-7.07 0.43,-2.99 -0.58,-6.01 -2.72,-8.14l-51.87 -51.87zm-191.23 86.58l-157.69 -86.59 157.69 -86.59 157.69 86.59 -157.69 86.59zm-60.36 -230.9l44.51 44.51 -160.1 87.92 -44.51 -44.52 160.1 -87.91zm-115.59 156.2l160.11 87.92 -44.52 44.51 -160.1 -87.91 44.51 -44.52zm343.99 177.52l-158.43 87 0 -98.2c0,-5.3 -4.3,-9.6 -9.61,-9.6 -5.31,0 -9.61,4.3 -9.61,9.6l0 98.2 -158.43 -87 0 -82.3 104.75 57.53c1.45,0.79 3.05,1.18 4.62,1.18 2.49,0 4.95,-0.97 6.8,-2.81l51.87 -51.88 51.87 51.88c1.85,1.85 4.31,2.81 6.8,2.81 1.57,0 3.17,-0.39 4.62,-1.18l104.75 -57.53 0 82.3zm-107.68 -45.09l-44.51 -44.51 160.1 -87.92 44.52 44.52 -160.11 87.91zm0 0z"/>
  <path class="fil0 str0" d="M392.94 69.57c2.52,0 4.99,-1.02 6.79,-2.81 1.79,-1.79 2.82,-4.27 2.82,-6.79 0,-2.53 -1.03,-5.01 -2.82,-6.79 -1.78,-1.79 -4.27,-2.82 -6.79,-2.82 -2.54,0 -5.01,1.03 -6.79,2.82 -1.8,1.78 -2.82,4.26 -2.82,6.79 0,2.52 1.02,5 2.82,6.79 1.78,1.79 4.26,2.81 6.79,2.81zm0 0z"/>
  <path class="fil0 str0" d="M250 306.6c-2.53,0 -5.01,1.03 -6.79,2.82 -1.79,1.79 -2.82,4.26 -2.82,6.79 0,2.53 1.03,5 2.82,6.8 1.78,1.78 4.26,2.81 6.79,2.81 2.53,0 5.01,-1.02 6.79,-2.81 1.79,-1.8 2.82,-4.27 2.82,-6.8 0,-2.53 -1.03,-5 -2.82,-6.79 -1.78,-1.79 -4.26,-2.82 -6.79,-2.82zm0 0z"/>
 </g>
</svg>
