<?xml version="1.0" encoding="iso-8859-1"?>
<!-- Generator: Adobe Illustrator 19.0.0, SVG Export Plug-In . SVG Version: 6.00 Build 0)  -->
<svg version="1.1" id="Capa_1" xmlns="http://www.w3.org/2000/svg" xmlns:xlink="http://www.w3.org/1999/xlink" x="0px" y="0px"
	 viewBox="0 0 479.679 479.679" style="enable-background:new 0 0 479.679 479.679;" xml:space="preserve" fill="#024c67">
<g>
	<g>
		<g>
			<path d="M455.679,162.981h-46.032l-12.92-97.488c-1.85-13.089-13.87-22.266-26.984-20.6L20.839,91.133
				c-6.323,0.848-12.049,4.178-15.912,9.256c-3.88,5.044-5.574,11.433-4.704,17.736l29.44,222.024
				c1.564,11.957,11.757,20.897,23.816,20.888c1.033-0.002,2.064-0.072,3.088-0.208l23.112-3.048v53.2c0,13.255,10.745,24,24,24h352
				c13.255,0,24-10.745,24-24v-224C479.679,173.726,468.934,162.981,455.679,162.981z M393.511,162.981h-62.472l61.392-8.136
				L393.511,162.981z M16.063,115.965c-0.281-2.088,0.289-4.202,1.584-5.864c1.287-1.711,3.206-2.835,5.328-3.12l348.84-46.224
				c4.387-0.556,8.411,2.504,9.048,6.88l3.16,23.824l-364.8,48.376L16.063,115.965z M79.679,341.645l-25.168,3.32
				c-4.38,0.582-8.402-2.497-8.984-6.877c0-0.001,0-0.002,0-0.003L27.679,203.221l52-6.872V341.645z M80.735,180.077l-55.2,7.28
				l-4.2-31.648l364.8-48.384l2.4,18.336l1.776,13.32l-181.032,24h-105.6C93.099,163,83.779,169.944,80.735,180.077z
				 M463.679,410.981c0,4.418-3.582,8-8,8h-352c-4.418,0-8-3.582-8-8v-223.76c0-0.08,0.04-0.16,0.04-0.24c0-4.418,3.582-8,8-8
				h351.96c4.418,0,8,3.582,8,8V410.981z"/>
			<path d="M351.247,283.166c3.216-2.374,6.059-5.216,8.432-8.432c13.153,17.705,38.169,21.395,55.874,8.241
				c17.705-13.153,21.395-38.169,8.241-55.874c-7.547-10.158-19.461-16.138-32.115-16.12c-12.64,0.035-24.513,6.064-32,16.248
				c-13.118-17.775-38.161-21.55-55.937-8.432c-17.775,13.118-21.55,38.161-8.432,55.937
				C308.428,292.508,333.472,296.284,351.247,283.166z M391.679,226.981c13.255,0,24,10.745,24,24s-10.745,24-24,24
				s-24-10.745-24-24S378.424,226.981,391.679,226.981z M327.679,226.981c13.255,0,24,10.745,24,24s-10.745,24-24,24
				s-24-10.745-24-24S314.424,226.981,327.679,226.981z"/>
			<rect x="127.679" y="218.981" width="16" height="16"/>
			<rect x="159.679" y="218.981" width="96" height="16"/>
			<rect x="127.679" y="250.981" width="128" height="16"/>
			<path d="M423.679,322.981h-288c-4.418,0-8,3.582-8,8v48c0,4.418,3.582,8,8,8h288c4.418,0,8-3.582,8-8v-48
				C431.679,326.563,428.098,322.981,423.679,322.981z M415.679,370.981h-272v-32h272V370.981z"/>
		</g>
	</g>
</g>
<g>
</g>
<g>
</g>
<g>
</g>
<g>
</g>
<g>
</g>
<g>
</g>
<g>
</g>
<g>
</g>
<g>
</g>
<g>
</g>
<g>
</g>
<g>
</g>
<g>
</g>
<g>
</g>
<g>
</g>
</svg>
